<?xml version="1.0" encoding="UTF-8" ?>
<!DOCTYPE mapper
PUBLIC "-//mybatis.org//DTD Mapper 3.0//EN"
"http://mybatis.org/dtd/mybatis-3-mapper.dtd">
<mapper namespace="com.ruoyi.system.mapper.PdsAlarmOperLogMapper">
    
    <resultMap type="PdsAlarmOperLog" id="PdsAlarmOperLogResult">
        <result property="id"    column="id"    />
        <result property="alarmId"    column="alarm_id"    />
        <result property="operUserName"    column="oper_user_name"    />
        <result property="operType"    column="oper_type"    />
        <result property="operResult"    column="oper_result"    />
        <result property="operIp"    column="oper_ip"    />
        <result property="operTime"    column="oper_time"    />
    </resultMap>

    <sql id="selectPdsAlarmOperLogVo">
        select id, alarm_id, oper_user_name, oper_type, oper_result, oper_ip, oper_time from pds_alarm_oper_log
    </sql>

    <select id="selectPdsAlarmOperLogList" parameterType="PdsAlarmOperLog" resultMap="PdsAlarmOperLogResult">
        <include refid="selectPdsAlarmOperLogVo"/>
        <where>  
            <if test="alarmId != null "> and alarm_id = #{alarmId}</if>
            <if test="operUserName != null  and operUserName != ''"> and oper_user_name like concat('%', #{operUserName}, '%')</if>
            <if test="operType != null "> and oper_type = #{operType}</if>
            <if test="operResult != null  and operResult != ''"> and oper_result = #{operResult}</if>
            <if test="operIp != null  and operIp != ''"> and oper_ip = #{operIp}</if>
            <if test="operTime != null "> and oper_time = #{operTime}</if>
        </where>
    </select>
    
    <select id="selectPdsAlarmOperLogById" parameterType="Long" resultMap="PdsAlarmOperLogResult">
        <include refid="selectPdsAlarmOperLogVo"/>
        where id = #{id}
    </select>
        
    <insert id="insertPdsAlarmOperLog" parameterType="PdsAlarmOperLog" useGeneratedKeys="true" keyProperty="id">
        insert into pds_alarm_oper_log
        <trim prefix="(" suffix=")" suffixOverrides=",">
            <if test="alarmId != null">alarm_id,</if>
            <if test="operUserName != null">oper_user_name,</if>
            <if test="operType != null">oper_type,</if>
            <if test="operResult != null">oper_result,</if>
            <if test="operIp != null">oper_ip,</if>
            <if test="operTime != null">oper_time,</if>
         </trim>
        <trim prefix="values (" suffix=")" suffixOverrides=",">
            <if test="alarmId != null">#{alarmId},</if>
            <if test="operUserName != null">#{operUserName},</if>
            <if test="operType != null">#{operType},</if>
            <if test="operResult != null">#{operResult},</if>
            <if test="operIp != null">#{operIp},</if>
            <if test="operTime != null">#{operTime},</if>
         </trim>
    </insert>

    <update id="updatePdsAlarmOperLog" parameterType="PdsAlarmOperLog">
        update pds_alarm_oper_log
        <trim prefix="SET" suffixOverrides=",">
            <if test="alarmId != null">alarm_id = #{alarmId},</if>
            <if test="operUserName != null">oper_user_name = #{operUserName},</if>
            <if test="operType != null">oper_type = #{operType},</if>
            <if test="operResult != null">oper_result = #{operResult},</if>
            <if test="operIp != null">oper_ip = #{operIp},</if>
            <if test="operTime != null">oper_time = #{operTime},</if>
        </trim>
        where id = #{id}
    </update>

    <delete id="deletePdsAlarmOperLogById" parameterType="Long">
        delete from pds_alarm_oper_log where id = #{id}
    </delete>

    <delete id="deletePdsAlarmOperLogByIds" parameterType="String">
        delete from pds_alarm_oper_log where id in 
        <foreach item="id" collection="array" open="(" separator="," close=")">
            #{id}
        </foreach>
    </delete>
</mapper>